Activity Worksheet Base R Plotting
…
Grouped & Stacked Barplots

## # A tibble: 4  2
##   continent `sum(pop)`
##      <fctr>      <dbl>
## 1    Africa  929539692
## 2  Americas  898871184
## 3      Asia 3811953827
## 4    Europe  586098529

## Source: local data frame [140 x 7]
## Groups: continent [4]
## 
##        country  year       pop continent lifeExp  gdpPercap  cont_pop
##         <fctr> <int>     <dbl>    <fctr>   <dbl>      <dbl>     <dbl>
## 1  Afghanistan  2007  31889923      Asia  43.828   974.5803  31889923
## 2      Albania  2007   3600523    Europe  76.423  5937.0295   3600523
## 3      Algeria  2007  33333216    Africa  72.301  6223.3675  33333216
## 4       Angola  2007  12420476    Africa  42.731  4797.2313  45753692
## 5    Argentina  2007  40301927  Americas  75.320 12779.3796  40301927
## 6      Austria  2007   8199783    Europe  79.829 36126.4927  11800306
## 7      Bahrain  2007    708573      Asia  75.635 29796.0483  32598496
## 8   Bangladesh  2007 150448339      Asia  64.062  1391.2538 183046835
## 9      Belgium  2007  10392226    Europe  79.441 33692.6051  22192532
## 10       Benin  2007   8078314    Africa  56.728  1441.2849  53832006
## # ... with 130 more rows
…
