…
    ## # A tibble: 4 x 2
    ##   continent `sum(pop)`
    ##   <fct>          <dbl>
    ## 1 Africa     929539692
    ## 2 Americas   898871184
    ## 3 Asia      3811953827
    ## 4 Europe     586098529

``` r
pop_2007 %>% group_by(continent) %>% mutate(cont_pop = cumsum(pop))
```

    ## # A tibble: 140 x 7
    ## # Groups:   continent [4]
    ##    country      year       pop continent lifeExp gdpPercap  cont_pop
    ##    <fct>       <int>     <dbl> <fct>       <dbl>     <dbl>     <dbl>
    ##  1 Afghanistan  2007  31889923 Asia         43.8      975.  31889923
    ##  2 Albania      2007   3600523 Europe       76.4     5937.   3600523
    ##  3 Algeria      2007  33333216 Africa       72.3     6223.  33333216
    ##  4 Angola       2007  12420476 Africa       42.7     4797.  45753692
    ##  5 Argentina    2007  40301927 Americas     75.3    12779.  40301927
    ##  6 Austria      2007   8199783 Europe       79.8    36126.  11800306
    ##  7 Bahrain      2007    708573 Asia         75.6    29796.  32598496
    ##  8 Bangladesh   2007 150448339 Asia         64.1     1391. 183046835
    ##  9 Belgium      2007  10392226 Europe       79.4    33693.  22192532
    ## 10 Benin        2007   8078314 Africa       56.7     1441.  53832006
    ## # ... with 130 more rows
…
